[gd_scene load_steps=20 format=2]

[ext_resource path="res://sprites/icon.png" type="Texture" id=1]
[ext_resource path="res://WPO.png" type="Texture" id=2]
[ext_resource path="res://scripts/player_grid_walker.gd" type="Script" id=3]
[ext_resource path="res://arrowkeys.tscn" type="PackedScene" id=4]
[ext_resource path="res://scripts/ai_path_walker.gd" type="Script" id=6]
[ext_resource path="res://sprites/greenicon.png" type="Texture" id=7]
[ext_resource path="res://scripts/ai_random_walker.gd" type="Script" id=8]
[ext_resource path="res://sprites/redicon.png" type="Texture" id=9]

[sub_resource type="NavigationPolygon" id=1]
vertices = PoolVector2Array( 0, 0, 32, 0, 32, 32, 0, 32 )
polygons = [ PoolIntArray( 0, 1, 2, 3 ) ]

[sub_resource type="OccluderPolygon2D" id=2]
polygon = PoolVector2Array( 0, 0, 32, 0, 32, 32, 0, 32 )

[sub_resource type="ConvexPolygonShape2D" id=3]
points = PoolVector2Array( 0, 0, 32, 0, 32, 32, 0, 32 )

[sub_resource type="NavigationPolygon" id=4]
vertices = PoolVector2Array( 0, 0, 32, 0, 32, 32, 0, 32 )
polygons = [ PoolIntArray( 0, 1, 2, 3 ) ]

[sub_resource type="OccluderPolygon2D" id=5]
polygon = PoolVector2Array( 0, 0, 32, 0, 32, 32, 0, 32 )

[sub_resource type="ConvexPolygonShape2D" id=6]
points = PoolVector2Array( 0, 0, 32, 0, 32, 32, 0, 32 )

[sub_resource type="NavigationPolygon" id=7]
vertices = PoolVector2Array( 0, 0, 32, 0, 32, 32, 0, 32 )
polygons = [ PoolIntArray( 0, 1, 2, 3 ) ]

[sub_resource type="OccluderPolygon2D" id=8]
polygon = PoolVector2Array( 0, 0, 32, 0, 32, 32, 0, 32 )

[sub_resource type="ConvexPolygonShape2D" id=9]
points = PoolVector2Array( 0, 0, 32, 0, 32, 32, 0, 32 )

[sub_resource type="TileSet" id=10]
0/name = "WPO.png 0"
0/texture = ExtResource( 2 )
0/tex_offset = Vector2( 0, 0 )
0/modulate = Color( 1, 1, 1, 1 )
0/region = Rect2( 0, 0, 32, 32 )
0/tile_mode = 0
0/occluder_offset = Vector2( 0, 0 )
0/occluder = SubResource( 2 )
0/navigation_offset = Vector2( 0, 0 )
0/navigation = SubResource( 1 )
0/shape_offset = Vector2( 0, 0 )
0/shape_transform = Transform2D( 1, 0, 0, 1, 0, 0 )
0/shape = SubResource( 3 )
0/shape_one_way = false
0/shape_one_way_margin = 1.0
0/shapes = [ {
"autotile_coord": Vector2( 0, 0 ),
"one_way": false,
"one_way_margin": 1.0,
"shape": SubResource( 3 ),
"shape_transform": Transform2D( 1, 0, 0, 1, 0, 0 )
} ]
0/z_index = 0
1/name = "WPO.png 1"
1/texture = ExtResource( 2 )
1/tex_offset = Vector2( 0, 0 )
1/modulate = Color( 1, 1, 1, 1 )
1/region = Rect2( 32, 0, 32, 32 )
1/tile_mode = 0
1/occluder_offset = Vector2( 0, 0 )
1/occluder = SubResource( 5 )
1/navigation_offset = Vector2( 0, 0 )
1/navigation = SubResource( 4 )
1/shape_offset = Vector2( 0, 0 )
1/shape_transform = Transform2D( 1, 0, 0, 1, 0, 0 )
1/shape = SubResource( 6 )
1/shape_one_way = false
1/shape_one_way_margin = 1.0
1/shapes = [ {
"autotile_coord": Vector2( 0, 0 ),
"one_way": false,
"one_way_margin": 1.0,
"shape": SubResource( 6 ),
"shape_transform": Transform2D( 1, 0, 0, 1, 0, 0 )
} ]
1/z_index = 0
2/name = "WPO.png 2"
2/texture = ExtResource( 2 )
2/tex_offset = Vector2( 0, 0 )
2/modulate = Color( 1, 1, 1, 1 )
2/region = Rect2( 64, 0, 32, 32 )
2/tile_mode = 0
2/occluder_offset = Vector2( 0, 0 )
2/occluder = SubResource( 8 )
2/navigation_offset = Vector2( 0, 0 )
2/navigation = SubResource( 7 )
2/shape_offset = Vector2( 0, 0 )
2/shape_transform = Transform2D( 1, 0, 0, 1, 0, 0 )
2/shape = SubResource( 9 )
2/shape_one_way = false
2/shape_one_way_margin = 1.0
2/shapes = [ {
"autotile_coord": Vector2( 0, 0 ),
"one_way": false,
"one_way_margin": 1.0,
"shape": SubResource( 9 ),
"shape_transform": Transform2D( 1, 0, 0, 1, 0, 0 )
} ]
2/z_index = 0

[sub_resource type="Curve2D" id=11]
_data = {
"points": PoolVector2Array( 0, 0, 0, 0, 40.2909, 201.796, 0, 0, 0, 0, 168.291, 201.796, 0, 0, 0, 0, 168.291, 297.796, 0, 0, 0, 0, 232.291, 297.796, 0, 0, 0, 0, 232.291, 361.796, 0, 0, 0, 0, 168.291, 361.796, 0, 0, 0, 0, 168.291, 425.796, 0, 0, 0, 0, 104.291, 425.796, 0, 0, 0, 0, 104.291, 265.796, 0, 0, 0, 0, 40.2909, 265.796, 0, 0, 0, 0, 40.2909, 201.796 )
}

[node name="scene" type="Node2D"]

[node name="TileMap" type="TileMap" parent="."]
tile_set = SubResource( 10 )
cell_size = Vector2( 32, 32 )
format = 1
tile_data = PoolIntArray( 10, 0, 0, 11, 0, 0, 12, 0, 0, 13, 0, 0, 14, 0, 0, 15, 0, 0, 16, 0, 0, 17, 0, 0, 18, 0, 0, 19, 0, 0, 20, 0, 0, 21, 0, 0, 22, 0, 0, 65558, 0, 0, 131090, 2, 0, 131091, 2, 0, 131094, 0, 0, 196612, 2, 0, 196613, 2, 0, 196617, 1, 0, 196618, 2, 0, 196619, 2, 0, 196620, 2, 0, 196621, 2, 0, 196622, 2, 0, 196623, 0, 0, 196624, 0, 0, 196625, 2, 0, 196629, 0, 0, 196630, 0, 0, 262146, 2, 0, 262147, 2, 0, 262153, 1, 0, 262154, 2, 0, 262160, 0, 0, 262164, 0, 0, 262165, 0, 0, 262170, 2, 0, 262171, 2, 0, 262172, 2, 0, 327682, 1, 0, 327683, 1, 0, 327685, 1, 0, 327686, 1, 0, 327687, 1, 0, 327688, 1, 0, 327689, 1, 0, 327690, 2, 0, 327692, 1, 0, 327698, 1, 0, 327699, 1, 0, 327700, 1, 0, 327704, 2, 0, 327705, 2, 0, 327708, 2, 0, 393216, 1, 0, 393217, 0, 0, 393218, 0, 0, 393219, 0, 0, 393220, 0, 0, 393221, 0, 0, 393222, 0, 0, 393223, 2, 0, 393225, 1, 0, 393226, 2, 0, 393228, 1, 0, 393229, 1, 0, 393230, 1, 0, 393231, 1, 0, 393234, 2, 0, 393235, 1, 0, 393236, 1, 0, 393244, 2, 0, 458752, 1, 0, 458753, 0, 0, 458754, 1, 0, 458755, 1, 0, 458756, 1, 0, 458757, 0, 0, 458758, 1, 0, 458761, 1, 0, 458762, 2, 0, 458770, 2, 0, 458772, 0, 0, 458773, 0, 0, 458774, 1, 0, 458775, 1, 0, 458776, 1, 0, 458777, 1, 0, 458778, 0, 0, 458780, 2, 0, 524288, 1, 0, 524289, 0, 0, 524290, 0, 0, 524291, 0, 0, 524292, 1, 0, 524293, 0, 0, 524294, 1, 0, 524296, 2, 0, 524297, 1, 0, 524298, 2, 0, 524300, 2, 0, 524301, 2, 0, 524302, 2, 0, 524303, 2, 0, 524306, 2, 0, 524307, 0, 0, 524308, 0, 0, 524309, 0, 0, 524310, 0, 0, 524311, 0, 0, 524312, 0, 0, 524313, 0, 0, 524314, 0, 0, 524315, 0, 0, 524316, 0, 0, 524317, 2, 0, 589826, 1, 0, 589827, 0, 0, 589829, 0, 0, 589830, 0, 0, 589831, 0, 0, 589832, 1, 0, 589833, 1, 0, 589834, 2, 0, 589836, 2, 0, 589838, 0, 0, 589839, 0, 0, 589840, 0, 0, 589842, 2, 0, 589843, 0, 0, 589844, 0, 0, 589845, 0, 0, 589851, 0, 0, 589852, 0, 0, 589853, 2, 0, 655360, 1, 0, 655362, 1, 0, 655363, 0, 0, 655364, 1, 0, 655365, 1, 0, 655366, 1, 0, 655367, 0, 0, 655368, 1, 0, 655369, 1, 0, 655370, 2, 0, 655372, 2, 0, 655374, 0, 0, 655376, 0, 0, 655379, 0, 0, 655380, 0, 0, 655383, 1, 0, 655384, 2, 0, 655385, 1, 0, 655387, 0, 0, 655388, 0, 0, 655389, 2, 0, 720896, 1, 0, 720898, 1, 0, 720899, 0, 0, 720900, 1, 0, 720901, 0, 0, 720902, 0, 0, 720903, 0, 0, 720904, 1, 0, 720908, 2, 0, 720910, 0, 0, 720911, 0, 0, 720912, 0, 0, 720915, 0, 0, 720916, 0, 0, 720921, 1, 0, 720923, 0, 0, 720924, 0, 0, 720925, 2, 0, 786432, 1, 0, 786434, 1, 0, 786435, 0, 0, 786436, 1, 0, 786437, 0, 0, 786442, 1, 0, 786446, 1, 0, 786447, 1, 0, 786448, 1, 0, 786449, 1, 0, 786450, 1, 0, 786451, 0, 0, 786452, 0, 0, 786455, 2, 0, 786456, 2, 0, 786457, 2, 0, 786459, 0, 0, 786460, 0, 0, 786461, 2, 0, 851968, 1, 0, 851970, 1, 0, 851971, 0, 0, 851972, 0, 0, 851973, 0, 0, 851978, 1, 0, 851987, 0, 0, 851988, 0, 0, 851995, 0, 0, 851996, 0, 0, 851997, 2, 0, 917504, 1, 0, 917506, 1, 0, 917507, 1, 0, 917508, 1, 0, 917509, 1, 0, 917510, 1, 0, 917513, 2, 0, 917514, 2, 0, 917515, 2, 0, 917516, 2, 0, 917517, 2, 0, 917518, 2, 0, 917519, 2, 0, 917520, 2, 0, 917521, 2, 0, 917524, 0, 0, 917525, 0, 0, 917526, 0, 0, 917529, 2, 0, 917530, 2, 0, 917531, 0, 0, 917532, 0, 0, 917533, 2, 0, 983040, 1, 0, 983060, 0, 0, 983061, 0, 0, 983062, 0, 0, 983063, 0, 0, 983064, 0, 0, 983065, 0, 0, 983066, 0, 0, 983067, 0, 0, 983068, 0, 0, 1048576, 1, 0, 1048577, 1, 0, 1048578, 1, 0, 1048579, 1, 0, 1048580, 1, 0, 1048599, 0, 0, 1048600, 0, 0, 1048601, 0, 0 )

[node name="player" type="Sprite" parent="." groups=["Player"]]
position = Vector2( 474.546, 315.897 )
texture = ExtResource( 1 )
centered = false
region_enabled = true
region_rect = Rect2( 16, 16, 32, 32 )
script = ExtResource( 3 )
WORLD_TILEMAP = NodePath("../../scene/TileMap")
WORLD_SOLID_TILES = [ 1, 2 ]

[node name="arrowkeys" parent="." instance=ExtResource( 4 )]

[node name="ai_path_walker" type="Sprite" parent="."]
position = Vector2( 29.4899, 190.182 )
texture = ExtResource( 7 )
centered = false
region_enabled = true
region_rect = Rect2( 16, 16, 32, 32 )
script = ExtResource( 6 )
SPEED = 64
WORLD_TILEMAP = NodePath("../../scene/TileMap")
WORLD_SOLID_TILES = [ 1, 2 ]
PATH_FOLLOW_NODE = NodePath("../../scene/Path2D/PathFollow2D")

[node name="Path2D" type="Path2D" parent="."]
position = Vector2( 0.70913, -0.79596 )
curve = SubResource( 11 )

[node name="PathFollow2D" type="PathFollow2D" parent="Path2D"]
position = Vector2( 40.2909, 201.796 )
rotation = -3.8969e-06

[node name="ai_random_walker" type="Sprite" parent="."]
position = Vector2( 696.579, 348.29 )
texture = ExtResource( 9 )
centered = false
region_enabled = true
region_rect = Rect2( 16, 16, 32, 32 )
script = ExtResource( 8 )
WORLD_TILEMAP = NodePath("../TileMap")
